info face="AIRBORNE" size=26 bold=0 italic=0 charset="" unicode=0 stretchH=100 smooth=1 aa=1 padding=0,0,0,0 spacing=0,0
common lineHeight=30 base=24 scaleW=512 scaleH=512 pages=1 packed=0
page id=0 file="airborne-small.png"
chars count=91
char id=32   x=0     y=0     width=0     height=0     xoffset=0     yoffset=24    xadvance=21     page=0  chnl=0 
char id=127   x=0     y=0     width=21     height=31     xoffset=3     yoffset=0    xadvance=20     page=0  chnl=0 
char id=42   x=21     y=0     width=17     height=31     xoffset=2     yoffset=0    xadvance=16     page=0  chnl=0 
char id=38   x=38     y=0     width=22     height=31     xoffset=0     yoffset=0    xadvance=21     page=0  chnl=0 
char id=95   x=60     y=0     width=23     height=31     xoffset=0     yoffset=0    xadvance=22     page=0  chnl=0 
char id=35   x=83     y=0     width=30     height=31     xoffset=0     yoffset=0    xadvance=29     page=0  chnl=0 
char id=61   x=113     y=0     width=16     height=31     xoffset=2     yoffset=0    xadvance=15     page=0  chnl=0 
char id=43   x=129     y=0     width=21     height=31     xoffset=1     yoffset=0    xadvance=20     page=0  chnl=0 
char id=37   x=150     y=0     width=24     height=31     xoffset=0     yoffset=0    xadvance=23     page=0  chnl=0 
char id=45   x=174     y=0     width=20     height=31     xoffset=2     yoffset=0    xadvance=19     page=0  chnl=0 
char id=36   x=194     y=0     width=29     height=31     xoffset=0     yoffset=0    xadvance=28     page=0  chnl=0 
char id=94   x=223     y=0     width=18     height=31     xoffset=1     yoffset=0    xadvance=17     page=0  chnl=0 
char id=92   x=241     y=0     width=25     height=31     xoffset=0     yoffset=0    xadvance=24     page=0  chnl=0 
char id=64   x=266     y=0     width=36     height=31     xoffset=5     yoffset=0    xadvance=35     page=0  chnl=0 
char id=47   x=302     y=0     width=22     height=31     xoffset=0     yoffset=0    xadvance=21     page=0  chnl=0 
char id=62   x=324     y=0     width=16     height=31     xoffset=1     yoffset=0    xadvance=15     page=0  chnl=0 
char id=60   x=340     y=0     width=16     height=31     xoffset=1     yoffset=0    xadvance=15     page=0  chnl=0 
char id=93   x=356     y=0     width=15     height=31     xoffset=1     yoffset=0    xadvance=14     page=0  chnl=0 
char id=91   x=371     y=0     width=16     height=31     xoffset=-1     yoffset=0    xadvance=15     page=0  chnl=0 
char id=41   x=387     y=0     width=11     height=31     xoffset=3     yoffset=0    xadvance=10     page=0  chnl=0 
char id=40   x=398     y=0     width=12     height=31     xoffset=1     yoffset=0    xadvance=11     page=0  chnl=0 
char id=58   x=410     y=0     width=9     height=31     xoffset=0     yoffset=0    xadvance=8     page=0  chnl=0 
char id=59   x=419     y=0     width=13     height=31     xoffset=-6     yoffset=0    xadvance=7     page=0  chnl=0 
char id=44   x=432     y=0     width=17     height=31     xoffset=-6     yoffset=0    xadvance=11     page=0  chnl=0 
char id=46   x=449     y=0     width=13     height=31     xoffset=0     yoffset=0    xadvance=12     page=0  chnl=0 
char id=39   x=462     y=0     width=13     height=31     xoffset=0     yoffset=0    xadvance=12     page=0  chnl=0 
char id=63   x=475     y=0     width=25     height=31     xoffset=0     yoffset=0    xadvance=24     page=0  chnl=0 
char id=96   x=0     y=31     width=18     height=31     xoffset=4     yoffset=0    xadvance=17     page=0  chnl=0 
char id=33   x=18     y=31     width=8     height=31     xoffset=1     yoffset=0    xadvance=7     page=0  chnl=0 
char id=34   x=26     y=31     width=21     height=31     xoffset=0     yoffset=0    xadvance=20     page=0  chnl=0 
char id=48   x=47     y=31     width=28     height=31     xoffset=2     yoffset=0    xadvance=27     page=0  chnl=0 
char id=57   x=75     y=31     width=28     height=31     xoffset=3     yoffset=0    xadvance=27     page=0  chnl=0 
char id=56   x=103     y=31     width=29     height=31     xoffset=2     yoffset=0    xadvance=28     page=0  chnl=0 
char id=55   x=132     y=31     width=25     height=31     xoffset=3     yoffset=0    xadvance=24     page=0  chnl=0 
char id=54   x=157     y=31     width=27     height=31     xoffset=3     yoffset=0    xadvance=26     page=0  chnl=0 
char id=53   x=184     y=31     width=26     height=31     xoffset=3     yoffset=0    xadvance=25     page=0  chnl=0 
char id=52   x=210     y=31     width=30     height=31     xoffset=3     yoffset=0    xadvance=29     page=0  chnl=0 
char id=51   x=240     y=31     width=26     height=31     xoffset=3     yoffset=0    xadvance=25     page=0  chnl=0 
char id=50   x=266     y=31     width=27     height=31     xoffset=3     yoffset=0    xadvance=26     page=0  chnl=0 
char id=49   x=293     y=31     width=26     height=31     xoffset=11     yoffset=0    xadvance=25     page=0  chnl=0 
char id=122   x=319     y=31     width=19     height=31     xoffset=0     yoffset=0    xadvance=18     page=0  chnl=0 
char id=121   x=338     y=31     width=24     height=31     xoffset=0     yoffset=0    xadvance=23     page=0  chnl=0 
char id=120   x=362     y=31     width=24     height=31     xoffset=0     yoffset=0    xadvance=23     page=0  chnl=0 
char id=119   x=386     y=31     width=29     height=31     xoffset=0     yoffset=0    xadvance=28     page=0  chnl=0 
char id=118   x=415     y=31     width=21     height=31     xoffset=0     yoffset=0    xadvance=20     page=0  chnl=0 
char id=117   x=436     y=31     width=24     height=31     xoffset=0     yoffset=0    xadvance=23     page=0  chnl=0 
char id=116   x=460     y=31     width=22     height=31     xoffset=0     yoffset=0    xadvance=21     page=0  chnl=0 
char id=115   x=482     y=31     width=23     height=31     xoffset=0     yoffset=0    xadvance=22     page=0  chnl=0 
char id=114   x=0     y=62     width=22     height=31     xoffset=-1     yoffset=0    xadvance=21     page=0  chnl=0 
char id=113   x=22     y=62     width=24     height=31     xoffset=0     yoffset=0    xadvance=23     page=0  chnl=0 
char id=112   x=46     y=62     width=23     height=31     xoffset=0     yoffset=0    xadvance=22     page=0  chnl=0 
char id=111   x=69     y=62     width=24     height=31     xoffset=0     yoffset=0    xadvance=23     page=0  chnl=0 
char id=110   x=93     y=62     width=23     height=31     xoffset=0     yoffset=0    xadvance=22     page=0  chnl=0 
char id=109   x=116     y=62     width=31     height=31     xoffset=0     yoffset=0    xadvance=30     page=0  chnl=0 
char id=108   x=147     y=62     width=13     height=31     xoffset=0     yoffset=0    xadvance=12     page=0  chnl=0 
char id=107   x=160     y=62     width=24     height=31     xoffset=0     yoffset=0    xadvance=23     page=0  chnl=0 
char id=106   x=184     y=62     width=23     height=31     xoffset=-7     yoffset=0    xadvance=16     page=0  chnl=0 
char id=105   x=207     y=62     width=13     height=31     xoffset=0     yoffset=0    xadvance=12     page=0  chnl=0 
char id=104   x=220     y=62     width=24     height=31     xoffset=-1     yoffset=0    xadvance=23     page=0  chnl=0 
char id=103   x=244     y=62     width=24     height=31     xoffset=0     yoffset=0    xadvance=23     page=0  chnl=0 
char id=102   x=268     y=62     width=22     height=31     xoffset=0     yoffset=0    xadvance=21     page=0  chnl=0 
char id=101   x=290     y=62     width=24     height=31     xoffset=0     yoffset=0    xadvance=23     page=0  chnl=0 
char id=100   x=314     y=62     width=24     height=31     xoffset=0     yoffset=0    xadvance=23     page=0  chnl=0 
char id=99   x=338     y=62     width=23     height=31     xoffset=-1     yoffset=0    xadvance=22     page=0  chnl=0 
char id=98   x=361     y=62     width=24     height=31     xoffset=0     yoffset=0    xadvance=23     page=0  chnl=0 
char id=97   x=385     y=62     width=25     height=31     xoffset=0     yoffset=0    xadvance=24     page=0  chnl=0 
char id=90   x=410     y=62     width=29     height=31     xoffset=0     yoffset=0    xadvance=28     page=0  chnl=0 
char id=89   x=439     y=62     width=30     height=31     xoffset=-1     yoffset=0    xadvance=29     page=0  chnl=0 
char id=88   x=469     y=62     width=32     height=31     xoffset=0     yoffset=0    xadvance=31     page=0  chnl=0 
char id=87   x=0     y=93     width=43     height=31     xoffset=0     yoffset=0    xadvance=42     page=0  chnl=0 
char id=86   x=43     y=93     width=30     height=31     xoffset=-1     yoffset=0    xadvance=29     page=0  chnl=0 
char id=85   x=73     y=93     width=29     height=31     xoffset=0     yoffset=0    xadvance=28     page=0  chnl=0 
char id=84   x=102     y=93     width=25     height=31     xoffset=0     yoffset=0    xadvance=24     page=0  chnl=0 
char id=83   x=127     y=93     width=29     height=31     xoffset=0     yoffset=0    xadvance=28     page=0  chnl=0 
char id=82   x=156     y=93     width=29     height=31     xoffset=0     yoffset=0    xadvance=28     page=0  chnl=0 
char id=81   x=185     y=93     width=30     height=31     xoffset=0     yoffset=0    xadvance=29     page=0  chnl=0 
char id=80   x=215     y=93     width=28     height=31     xoffset=0     yoffset=0    xadvance=27     page=0  chnl=0 
char id=79   x=243     y=93     width=30     height=31     xoffset=0     yoffset=0    xadvance=29     page=0  chnl=0 
char id=78   x=273     y=93     width=27     height=31     xoffset=0     yoffset=0    xadvance=26     page=0  chnl=0 
char id=77   x=300     y=93     width=32     height=31     xoffset=0     yoffset=0    xadvance=31     page=0  chnl=0 
char id=76   x=332     y=93     width=22     height=31     xoffset=0     yoffset=0    xadvance=21     page=0  chnl=0 
char id=75   x=354     y=93     width=28     height=31     xoffset=-1     yoffset=0    xadvance=27     page=0  chnl=0 
char id=74   x=382     y=93     width=29     height=31     xoffset=0     yoffset=0    xadvance=28     page=0  chnl=0 
char id=73   x=411     y=93     width=17     height=31     xoffset=2     yoffset=0    xadvance=16     page=0  chnl=0 
char id=72   x=428     y=93     width=29     height=31     xoffset=0     yoffset=0    xadvance=28     page=0  chnl=0 
char id=71   x=457     y=93     width=32     height=31     xoffset=0     yoffset=0    xadvance=31     page=0  chnl=0 
char id=70   x=0     y=124     width=28     height=31     xoffset=0     yoffset=0    xadvance=27     page=0  chnl=0 
char id=69   x=28     y=124     width=28     height=31     xoffset=0     yoffset=0    xadvance=27     page=0  chnl=0 
char id=68   x=56     y=124     width=29     height=31     xoffset=0     yoffset=0    xadvance=28     page=0  chnl=0 
char id=67   x=85     y=124     width=28     height=31     xoffset=0     yoffset=0    xadvance=27     page=0  chnl=0 
char id=66   x=113     y=124     width=28     height=31     xoffset=0     yoffset=0    xadvance=27     page=0  chnl=0 
char id=65   x=141     y=124     width=32     height=31     xoffset=0     yoffset=0    xadvance=31     page=0  chnl=0 
kernings count=13
kerning first=101  second=115  amount=-2
kerning first=89  second=65  amount=-5
kerning first=89  second=97  amount=-3
kerning first=89  second=101  amount=-3
kerning first=89  second=105  amount=-2
kerning first=89  second=111  amount=-3
kerning first=89  second=117  amount=-2
kerning first=87  second=65  amount=-2
kerning first=86  second=65  amount=-3
kerning first=84  second=65  amount=-2
kerning first=80  second=97  amount=-3
kerning first=65  second=86  amount=-3
kerning first=65  second=87  amount=-3
kerning first=65  second=89  amount=-2
