info face=Florencesans SC Black,Italic size=35 bold=0 italic=1 charset="" unicode=1 stretchH=100 smooth=0 aa=1 padding=0,0,0,0 spacing=1,1
common lineHeight=39 base=32 scaleW=256 scaleH=256 pages=1 packed=0
page id=0 file=small_00.png
chars count=95
char id=32 x=101 y=0 width=0 height=0 xoffset=0 yoffset=32 xadvance=14 page=0 chnl=0
char id=33 x=235 y=109 width=11 height=25 xoffset=2 yoffset=7 xadvance=10 page=0 chnl=0
char id=34 x=2 y=188 width=14 height=11 xoffset=7 yoffset=5 xadvance=17 page=0 chnl=0
char id=35 x=75 y=188 width=20 height=17 xoffset=4 yoffset=9 xadvance=21 page=0 chnl=0
char id=36 x=68 y=0 width=25 height=32 xoffset=2 yoffset=4 xadvance=25 page=0 chnl=0
char id=37 x=213 y=30 width=33 height=26 xoffset=1 yoffset=7 xadvance=31 page=0 chnl=0
char id=38 x=94 y=60 width=21 height=26 xoffset=3 yoffset=7 xadvance=24 page=0 chnl=0
char id=39 x=9 y=200 width=7 height=11 xoffset=7 yoffset=5 xadvance=10 page=0 chnl=0
char id=40 x=210 y=0 width=14 height=29 xoffset=3 yoffset=7 xadvance=12 page=0 chnl=0
char id=41 x=225 y=0 width=14 height=29 xoffset=0 yoffset=7 xadvance=12 page=0 chnl=0
char id=42 x=17 y=188 width=15 height=13 xoffset=5 yoffset=9 xadvance=17 page=0 chnl=0
char id=43 x=49 y=188 width=15 height=14 xoffset=3 yoffset=16 xadvance=18 page=0 chnl=0
char id=44 x=0 y=200 width=8 height=11 xoffset=2 yoffset=27 xadvance=10 page=0 chnl=0
char id=45 x=85 y=207 width=15 height=4 xoffset=3 yoffset=21 xadvance=18 page=0 chnl=0
char id=46 x=50 y=203 width=7 height=6 xoffset=2 yoffset=26 xadvance=10 page=0 chnl=0
char id=47 x=122 y=0 width=20 height=29 xoffset=0 yoffset=7 xadvance=16 page=0 chnl=0
char id=48 x=75 y=33 width=25 height=26 xoffset=2 yoffset=7 xadvance=24 page=0 chnl=0
char id=49 x=207 y=109 width=14 height=25 xoffset=9 yoffset=7 xadvance=24 page=0 chnl=0
char id=50 x=119 y=83 width=25 height=25 xoffset=2 yoffset=7 xadvance=24 page=0 chnl=0
char id=51 x=0 y=34 width=23 height=26 xoffset=3 yoffset=7 xadvance=24 page=0 chnl=0
char id=52 x=101 y=113 width=23 height=25 xoffset=2 yoffset=7 xadvance=24 page=0 chnl=0
char id=53 x=48 y=60 width=22 height=26 xoffset=3 yoffset=7 xadvance=24 page=0 chnl=0
char id=54 x=0 y=61 width=23 height=26 xoffset=3 yoffset=7 xadvance=24 page=0 chnl=0
char id=55 x=26 y=114 width=24 height=25 xoffset=4 yoffset=7 xadvance=24 page=0 chnl=0
char id=56 x=24 y=34 width=24 height=26 xoffset=2 yoffset=7 xadvance=24 page=0 chnl=0
char id=57 x=24 y=61 width=23 height=26 xoffset=4 yoffset=7 xadvance=24 page=0 chnl=0
char id=58 x=65 y=188 width=9 height=16 xoffset=2 yoffset=16 xadvance=10 page=0 chnl=0
char id=59 x=130 y=188 width=9 height=22 xoffset=2 yoffset=16 xadvance=10 page=0 chnl=0
char id=60 x=113 y=188 width=16 height=18 xoffset=3 yoffset=14 xadvance=17 page=0 chnl=0
char id=61 x=17 y=202 width=16 height=10 xoffset=3 yoffset=18 xadvance=18 page=0 chnl=0
char id=62 x=96 y=188 width=16 height=18 xoffset=2 yoffset=14 xadvance=17 page=0 chnl=0
char id=63 x=190 y=109 width=16 height=25 xoffset=3 yoffset=7 xadvance=16 page=0 chnl=0
char id=64 x=0 y=0 width=36 height=33 xoffset=2 yoffset=7 xadvance=36 page=0 chnl=0
char id=65 x=125 y=109 width=23 height=25 xoffset=0 yoffset=7 xadvance=23 page=0 chnl=0
char id=66 x=93 y=87 width=25 height=25 xoffset=1 yoffset=7 xadvance=23 page=0 chnl=0
char id=67 x=128 y=30 width=26 height=26 xoffset=3 yoffset=7 xadvance=26 page=0 chnl=0
char id=68 x=214 y=57 width=27 height=25 xoffset=1 yoffset=7 xadvance=26 page=0 chnl=0
char id=69 x=67 y=87 width=25 height=25 xoffset=1 yoffset=7 xadvance=22 page=0 chnl=0
char id=70 x=41 y=88 width=25 height=25 xoffset=1 yoffset=7 xadvance=21 page=0 chnl=0
char id=71 x=155 y=30 width=27 height=26 xoffset=3 yoffset=7 xadvance=27 page=0 chnl=0
char id=72 x=229 y=83 width=27 height=25 xoffset=1 yoffset=7 xadvance=25 page=0 chnl=0
char id=73 x=222 y=109 width=12 height=25 xoffset=1 yoffset=7 xadvance=9 page=0 chnl=0
char id=74 x=71 y=60 width=22 height=26 xoffset=1 yoffset=7 xadvance=19 page=0 chnl=0
char id=75 x=201 y=83 width=27 height=25 xoffset=1 yoffset=7 xadvance=22 page=0 chnl=0
char id=76 x=172 y=109 width=17 height=25 xoffset=1 yoffset=7 xadvance=18 page=0 chnl=0
char id=77 x=150 y=57 width=32 height=25 xoffset=1 yoffset=7 xadvance=29 page=0 chnl=0
char id=78 x=173 y=83 width=27 height=25 xoffset=1 yoffset=7 xadvance=25 page=0 chnl=0
char id=79 x=183 y=30 width=29 height=26 xoffset=3 yoffset=7 xadvance=29 page=0 chnl=0
char id=80 x=15 y=88 width=25 height=25 xoffset=1 yoffset=7 xadvance=22 page=0 chnl=0
char id=81 x=37 y=0 width=30 height=32 xoffset=2 yoffset=7 xadvance=29 page=0 chnl=0
char id=82 x=0 y=114 width=25 height=25 xoffset=1 yoffset=7 xadvance=23 page=0 chnl=0
char id=83 x=49 y=33 width=25 height=26 xoffset=2 yoffset=7 xadvance=24 page=0 chnl=0
char id=84 x=149 y=109 width=22 height=25 xoffset=5 yoffset=7 xadvance=22 page=0 chnl=0
char id=85 x=101 y=30 width=26 height=26 xoffset=2 yoffset=7 xadvance=24 page=0 chnl=0
char id=86 x=51 y=114 width=24 height=25 xoffset=5 yoffset=7 xadvance=23 page=0 chnl=0
char id=87 x=116 y=57 width=33 height=25 xoffset=5 yoffset=7 xadvance=33 page=0 chnl=0
char id=88 x=183 y=57 width=30 height=25 xoffset=-1 yoffset=7 xadvance=23 page=0 chnl=0
char id=89 x=76 y=113 width=24 height=25 xoffset=5 yoffset=7 xadvance=23 page=0 chnl=0
char id=90 x=145 y=83 width=27 height=25 xoffset=1 yoffset=7 xadvance=24 page=0 chnl=0
char id=91 x=143 y=0 width=16 height=29 xoffset=1 yoffset=7 xadvance=13 page=0 chnl=0
char id=92 x=247 y=30 width=9 height=29 xoffset=6 yoffset=7 xadvance=16 page=0 chnl=0
char id=93 x=160 y=0 width=16 height=29 xoffset=1 yoffset=7 xadvance=13 page=0 chnl=0
char id=94 x=33 y=188 width=15 height=14 xoffset=4 yoffset=9 xadvance=18 page=0 chnl=0
char id=95 x=67 y=206 width=17 height=4 xoffset=0 yoffset=28 xadvance=17 page=0 chnl=0
char id=96 x=58 y=205 width=8 height=5 xoffset=6 yoffset=7 xadvance=11 page=0 chnl=0
char id=97 x=212 y=184 width=21 height=23 xoffset=0 yoffset=9 xadvance=21 page=0 chnl=0
char id=98 x=129 y=164 width=23 height=23 xoffset=1 yoffset=9 xadvance=21 page=0 chnl=0
char id=99 x=204 y=135 width=25 height=24 xoffset=2 yoffset=9 xadvance=23 page=0 chnl=0
char id=100 x=0 y=164 width=25 height=23 xoffset=1 yoffset=9 xadvance=24 page=0 chnl=0
char id=101 x=153 y=160 width=23 height=23 xoffset=1 yoffset=9 xadvance=20 page=0 chnl=0
char id=102 x=177 y=160 width=23 height=23 xoffset=1 yoffset=9 xadvance=19 page=0 chnl=0
char id=103 x=178 y=135 width=25 height=24 xoffset=2 yoffset=9 xadvance=25 page=0 chnl=0
char id=104 x=26 y=164 width=25 height=23 xoffset=1 yoffset=9 xadvance=22 page=0 chnl=0
char id=105 x=140 y=188 width=11 height=23 xoffset=1 yoffset=9 xadvance=8 page=0 chnl=0
char id=106 x=110 y=139 width=20 height=24 xoffset=1 yoffset=9 xadvance=18 page=0 chnl=0
char id=107 x=52 y=164 width=25 height=23 xoffset=1 yoffset=9 xadvance=20 page=0 chnl=0
char id=108 x=152 y=184 width=16 height=23 xoffset=1 yoffset=9 xadvance=17 page=0 chnl=0
char id=109 x=49 y=140 width=29 height=23 xoffset=1 yoffset=9 xadvance=26 page=0 chnl=0
char id=110 x=78 y=163 width=25 height=23 xoffset=1 yoffset=9 xadvance=22 page=0 chnl=0
char id=111 x=230 y=135 width=26 height=24 xoffset=3 yoffset=9 xadvance=26 page=0 chnl=0
char id=112 x=201 y=160 width=23 height=23 xoffset=1 yoffset=9 xadvance=20 page=0 chnl=0
char id=113 x=94 y=0 width=27 height=29 xoffset=2 yoffset=9 xadvance=26 page=0 chnl=0
char id=114 x=225 y=160 width=23 height=23 xoffset=1 yoffset=9 xadvance=21 page=0 chnl=0
char id=115 x=131 y=135 width=22 height=24 xoffset=2 yoffset=9 xadvance=22 page=0 chnl=0
char id=116 x=169 y=184 width=20 height=23 xoffset=4 yoffset=9 xadvance=20 page=0 chnl=0
char id=117 x=154 y=135 width=23 height=24 xoffset=2 yoffset=9 xadvance=22 page=0 chnl=0
char id=118 x=190 y=184 width=21 height=23 xoffset=5 yoffset=9 xadvance=21 page=0 chnl=0
char id=119 x=79 y=139 width=30 height=23 xoffset=5 yoffset=9 xadvance=30 page=0 chnl=0
char id=120 x=20 y=140 width=28 height=23 xoffset=-1 yoffset=9 xadvance=21 page=0 chnl=0
char id=121 x=234 y=184 width=22 height=23 xoffset=4 yoffset=9 xadvance=21 page=0 chnl=0
char id=122 x=104 y=164 width=24 height=23 xoffset=1 yoffset=9 xadvance=22 page=0 chnl=0
char id=123 x=177 y=0 width=16 height=29 xoffset=3 yoffset=7 xadvance=15 page=0 chnl=0
char id=124 x=240 y=0 width=12 height=29 xoffset=1 yoffset=7 xadvance=9 page=0 chnl=0
char id=125 x=194 y=0 width=15 height=29 xoffset=1 yoffset=7 xadvance=15 page=0 chnl=0
char id=126 x=34 y=203 width=15 height=6 xoffset=3 yoffset=20 xadvance=18 page=0 chnl=0
kernings count=112
kerning first=34 second=65 amount=-5
kerning first=65 second=34 amount=-5
kerning first=65 second=39 amount=-5
kerning first=65 second=67 amount=-2
kerning first=65 second=71 amount=-2
kerning first=65 second=79 amount=-2
kerning first=65 second=81 amount=-2
kerning first=65 second=84 amount=-4
kerning first=65 second=86 amount=-4
kerning first=65 second=87 amount=-3
kerning first=65 second=89 amount=-4
kerning first=65 second=116 amount=-3
kerning first=65 second=118 amount=-4
kerning first=65 second=119 amount=-3
kerning first=65 second=121 amount=-4
kerning first=66 second=46 amount=-2
kerning first=68 second=44 amount=-3
kerning first=68 second=46 amount=-4
kerning first=68 second=65 amount=-2
kerning first=68 second=86 amount=-2
kerning first=68 second=87 amount=-2
kerning first=68 second=89 amount=-3
kerning first=70 second=44 amount=-9
kerning first=70 second=46 amount=-10
kerning first=70 second=65 amount=-4
kerning first=70 second=97 amount=-4
kerning first=70 second=111 amount=-2
kerning first=71 second=46 amount=-2
kerning first=74 second=46 amount=-2
kerning first=76 second=34 amount=-7
kerning first=76 second=39 amount=-7
kerning first=76 second=84 amount=-4
kerning first=76 second=86 amount=-4
kerning first=76 second=87 amount=-3
kerning first=76 second=89 amount=-5
kerning first=76 second=121 amount=-4
kerning first=79 second=44 amount=-3
kerning first=79 second=46 amount=-3
kerning first=79 second=65 amount=-2
kerning first=79 second=84 amount=-2
kerning first=79 second=86 amount=-2
kerning first=79 second=89 amount=-2
kerning first=80 second=44 amount=-10
kerning first=80 second=46 amount=-10
kerning first=80 second=65 amount=-3
kerning first=80 second=97 amount=-3
kerning first=81 second=44 amount=-3
kerning first=81 second=46 amount=-3
kerning first=84 second=44 amount=-5
kerning first=84 second=45 amount=-4
kerning first=84 second=46 amount=-6
kerning first=84 second=58 amount=-3
kerning first=84 second=59 amount=-3
kerning first=84 second=65 amount=-4
kerning first=84 second=79 amount=-2
kerning first=84 second=97 amount=-4
kerning first=84 second=111 amount=-3
kerning first=86 second=44 amount=-5
kerning first=86 second=45 amount=-4
kerning first=86 second=46 amount=-5
kerning first=86 second=58 amount=-2
kerning first=86 second=59 amount=-2
kerning first=86 second=65 amount=-4
kerning first=86 second=71 amount=-2
kerning first=86 second=79 amount=-2
kerning first=86 second=97 amount=-4
kerning first=86 second=111 amount=-2
kerning first=87 second=44 amount=-4
kerning first=87 second=45 amount=-3
kerning first=87 second=46 amount=-4
kerning first=87 second=58 amount=-2
kerning first=87 second=59 amount=-2
kerning first=87 second=65 amount=-3
kerning first=87 second=97 amount=-3
kerning first=89 second=44 amount=-6
kerning first=89 second=45 amount=-4
kerning first=89 second=46 amount=-6
kerning first=89 second=58 amount=-3
kerning first=89 second=59 amount=-3
kerning first=89 second=65 amount=-4
kerning first=89 second=79 amount=-2
kerning first=89 second=97 amount=-5
kerning first=89 second=111 amount=-3
kerning first=97 second=116 amount=-3
kerning first=97 second=118 amount=-4
kerning first=97 second=119 amount=-2
kerning first=97 second=121 amount=-4
kerning first=100 second=118 amount=-2
kerning first=100 second=121 amount=-2
kerning first=101 second=103 amount=-2
kerning first=102 second=44 amount=-8
kerning first=102 second=46 amount=-9
kerning first=102 second=49 amount=-5
kerning first=102 second=97 amount=-3
kerning first=103 second=46 amount=-2
kerning first=108 second=119 amount=-2
kerning first=108 second=121 amount=-4
kerning first=111 second=44 amount=-2
kerning first=111 second=46 amount=-3
kerning first=111 second=121 amount=-2
kerning first=112 second=44 amount=-9
kerning first=112 second=46 amount=-9
kerning first=118 second=44 amount=-4
kerning first=118 second=46 amount=-5
kerning first=118 second=97 amount=-4
kerning first=119 second=44 amount=-3
kerning first=119 second=46 amount=-4
kerning first=119 second=97 amount=-2
kerning first=121 second=44 amount=-5
kerning first=121 second=46 amount=-5
kerning first=121 second=97 amount=-4
kerning first=121 second=111 amount=-2
